hw06_yukirang
…
Afghanistan
Asia
1997
41.763
22227415
635.3414

And now nest t
he data:

(gap_nested <- gap_nested %>% 
   nest())

## # A tibble: 142 x 3
##    continent country     data             
##    <fct>     <fct>       <list>           
##  1 Asia      Afghanistan <tibble [12  4]>
##  2 Europe    Albania     <tibble [12  4]>
##  3 Africa    Algeria     <tibble [12  4]>
##  4 Africa    Angola      <tibble [12  4]>
##  5 Americas  Argentina   <tibble [12  4]>
##  6 Oceania   Australia   <tibble [12  4]>
##  7 Europe    Austria     <tibble [12  4]>
##  8 Asia      Bahrain     <tibble [12  4]>
##  9 Asia      Bangladesh  <tibble [12  4]>
## 10 Europe    Belgium     <tibble [12  4]>
## # ... with 132 more rows
…
Scale this up to all countries:

(gap_nested <- gap_nested %>% 
   mutate(fit = map(data, my_lm)))

## # A tibble: 142 x 4
##    continent country     data              fit     
##    <fct>     <fct>       <list>            <list>  
##  1 Asia      Afghanistan <tibble [12  4]> <S3: lm>
##  2 Europe    Albania     <tibble [12  4]> <S3: lm>
##  3 Africa    Algeria     <tibble [12  4]> <S3: lm>
##  4 Africa    Angola      <tibble [12  4]> <S3: lm>
##  5 Americas  Argentina   <tibble [12  4]> <S3: lm>
##  6 Oceania   Australia   <tibble [12  4]> <S3: lm>
##  7 Europe    Austria     <tibble [12  4]> <S3: lm>
##  8 Asia      Bahrain     <tibble [12  4]> <S3: lm>
##  9 Asia      Bangladesh  <tibble [12  4]> <S3: lm>
## 10 Europe    Belgium     <tibble [12  4]> <S3: lm>
## # ... with 132 more rows
…
I(year - 1950)
0.5307149
0.0645075
8.227174
9.2e-06

Extend to all oth
er countries:

(gap_nested <- gap_nested %>% 
  mutate(tidy = map(fit, tidy)))

## # A tibble: 142 x 5
##    continent country     data              fit      tidy            
##    <fct>     <fct>       <list>            <list>   <list>          
##  1 Asia      Afghanistan <tibble [12  4]> <S3: lm> <tibble [2  5]>
##  2 Europe    Albania     <tibble [12  4]> <S3: lm> <tibble [2  5]>
##  3 Africa    Algeria     <tibble [12  4]> <S3: lm> <tibble [2  5]>
##  4 Africa    Angola      <tibble [12  4]> <S3: lm> <tibble [2  5]>
##  5 Americas  Argentina   <tibble [12  4]> <S3: lm> <tibble [2  5]>
##  6 Oceania   Australia   <tibble [12  4]> <S3: lm> <tibble [2  5]>
##  7 Europe    Austria     <tibble [12  4]> <S3: lm> <tibble [2  5]>
##  8 Asia      Bahrain     <tibble [12  4]> <S3: lm> <tibble [2  5]>
##  9 Asia      Bangladesh  <tibble [12  4]> <S3: lm> <tibble [2  5]>
## 10 Europe    Belgium     <tibble [12  4]> <S3: lm> <tibble [2  5]>
## # ... with 132 more rows
…
Now we have several colums, with the fitted rows of lifeExp. 4. unnest the data in the dataframe:

(gap_coefs <- gap_nested %>% 
   select(continent, country, tidy) %>% 
   unnest())

## # A tibble: 284 x 7
##    continent country     term        estimate std.error statistic  p.value
##    <fct>     <fct>       <chr>          <dbl>     <dbl>     <dbl>    <dbl>
##  1 Asia      Afghanistan (Intercept)   29.4     0.699       42.0  1.40e-12
##  2 Asia      Afghanistan I(year - 1    0.275   0.0205      13.5  9.84e- 8
##  3 Europe    Albania     (Intercept)   58.6     1.13        51.7  1.79e-13
##  4 Europe    Albania     I(year - 1    0.335   0.0332      10.1  1.46e- 6
##  5 Africa    Algeria     (Intercept)   42.2     0.756       55.8  8.22e-14
##  6 Africa    Algeria     I(year - 1    0.569   0.0221      25.7  1.81e-10
##  7 Africa    Angola      (Intercept)   31.7     0.804       39.4  2.63e-12
##  8 Africa    Angola      I(year - 1    0.209   0.0235       8.90 4.59e- 6
##  9 Americas  Argentina   (Intercept)   62.2     0.167      372.   4.80e-22
## 10 Americas  Argentina   I(year - 1    0.232   0.00489     47.4  4.22e-13
## # ... with 274 more rows

Adding the previous scope and intercept with recode():

(gap_coefs <- gap_coefs %>%
   mutate(term = recode(term,
                        `(Intercept)` = "intercept",
                        `I(year - 1950)` = "slope")))

## # A tibble: 284 x 7
##    continent country     term      estimate std.error statistic  p.value
##    <fct>     <fct>       <chr>        <dbl>     <dbl>     <dbl>    <dbl>
##  1 Asia      Afghanistan intercept   29.4     0.699       42.0  1.40e-12
##  2 Asia      Afghanistan slope        0.275   0.0205      13.5  9.84e- 8
##  3 Europe    Albania     intercept   58.6     1.13        51.7  1.79e-13
##  4 Europe    Albania     slope        0.335   0.0332      10.1  1.46e- 6
##  5 Africa    Algeria     intercept   42.2     0.756       55.8  8.22e-14
##  6 Africa    Algeria     slope        0.569   0.0221      25.7  1.81e-10
##  7 Africa    Angola      intercept   31.7     0.804       39.4  2.63e-12
##  8 Africa    Angola      slope        0.209   0.0235       8.90 4.59e- 6
##  9 Americas  Argentina   intercept   62.2     0.167      372.   4.80e-22
## 10 Americas  Argentina   slope        0.232   0.00489     47.4  4.22e-13
## # ... with 274 more rows

Reshaping the estimates of each continents and make a summary:

(gap_ests <- gap_coefs %>% 
   select(continent:estimate) %>% 
   spread(key = term, value = estimate))

## # A tibble: 142 x 4
##    continent country                  intercept  slope
##    <fct>     <fct>                        <dbl>  <dbl>
##  1 Africa    Algeria                       42.2 0.569 
##  2 Africa    Angola                        31.7 0.209 
##  3 Africa    Benin                         38.9 0.334 
##  4 Africa    Botswana                      52.8 0.0607
##  5 Africa    Burkina Faso                  34.0 0.364 
##  6 Africa    Burundi                       40.3 0.154 
##  7 Africa    Cameroon                      40.7 0.250 
##  8 Africa    Central African Republic      38.4 0.184 
##  9 Africa    Chad                          39.3 0.253 
## 10 Africa    Comoros                       39.1 0.450 
## # ... with 132 more rows
…
